sku,product_type,product_websites,categories,attribute_set_code,name,url_key,visibility,associated_products,configurable_attributes,image,small_image,thumbnail,description
HAKUNA MATATA,configurable,odyssey,Geek/Camisetas/Series e Filmes,Geek,HAKUNA MATATA,Hakuna-matata,"catalog, search","HAKUNA MATATA PP Feminina,HAKUNA MATATA PP Masculina,HAKUNA MATATA  P Feminina,HAKUNA MATATA  P Masculina,HAKUNA MATATA  M Feminina,HAKUNA MATATA  M Masculina,HAKUNA MATATA G Feminina,HAKUNA MATATA G Masculina,HAKUNA MATATA GG Feminina,HAKUNA MATATA GG Masculina","size,gender",hakunamatata.png,hakunamatata.png,hakunamatata.png,"Você está prestes a adquirir um produto totalmente único e de qualidade. Nossas estampas (formidáveis, é claro) são criadas e pensadas especialmente pra você e além da malha das nossas camisetas serem 100% algodão com fio penteado 30.1, o processo de produção silkscreen é feito à base d'água (o que faz com que sua estampa nunca corra o risco de craquelar)."
PODER INFINITO,configurable,odyssey,Geek/Camisetas/Animes,Geek,PODER INFINITO,Poder-infinito,"catalog, search","PODER INFINITO PP Feminina,PODER INFINITO PP Masculina,PODER INFINITO P Feminina,PODER INFINITO P Masculina,PODER INFINITO M Feminina,PODER INFINITO M Masculina,PODER INFINITO G Feminina,PODER INFINITO G Masculina,PODER INFINITO GG Feminina,PODER INFINITO GG Masculina","size,gender",narutocamiseta.png,narutocamiseta.png,narutocamiseta.png,"Você está prestes a adquirir um produto totalmente único e de qualidade. Nossas estampas (formidáveis, é claro) são criadas e pensadas especialmente pra você e além da malha das nossas camisetas serem 100% algodão com fio penteado 30.1, o processo de produção silkscreen é feito à base d'água (o que faz com que sua estampa nunca corra o risco de craquelar)."
SHE LAST OF US,configurable,odyssey,Geek/Camisetas/Jogos,Geek,SHE LAST OF US,She-last-of-us,"catalog, search","SHE LAST OF US PP Feminina,SHE LAST OF US PP Masculina,SHE LAST OF US P Feminina,SHE LAST OF US P Masculina,SHE LAST OF US M Feminina,SHE LAST OF US M Masculina,SHE LAST OF US G Feminina,SHE LAST OF US G Masculina,SHE LAST OF US GG Feminina,SHE LAST OF US GG Masculina","size,gender",shelast.jpg,shelast.jpg,shelast.jpg,"Você está prestes a adquirir um produto totalmente único e de qualidade. Nossas estampas (formidáveis, é claro) são criadas e pensadas especialmente pra você e além da malha das nossas camisetas serem 100% algodão com fio penteado 30.1, o processo de produção silkscreen é feito à base d'água (o que faz com que sua estampa nunca corra o risco de craquelar)."
